…
    ## The following objects are masked from 'package:base':
    ## 
    ##     intersect, setdiff, setequal, union

    most_petitions <-
    h1b %>%
    group_by(EMPLOYER_NAME) %>%
    summarize(count=n()) %>%
    arrange(desc(count))

    most_petitions

    ## # A tibble: 236,015 x 2
    ##                                      EMPLOYER_NAME  count
    ##                                             <fctr>  <int>
    ## 1                                  INFOSYS LIMITED 130592
    ## 2                TATA CONSULTANCY SERVICES LIMITED  64726
    ## 3                                    WIPRO LIMITED  48117
    ## 4                          DELOITTE CONSULTING LLP  36742
    ## 5                        IBM INDIA PRIVATE LIMITED  34219
    ## 6                                    ACCENTURE LLP  33447
    ## 7                            MICROSOFT CORPORATION  25576
    ## 8                                HCL AMERICA, INC.  22678
    ## 9                           ERNST & YOUNG U.S. LLP  18232
    ## 10 COGNIZANT TECHNOLOGY SOLUTIONS U.S. CORPORATION  17528
    ## # ... with 236,005 more rows
…
